[	
	{
		"intent": "info.tiempo.temperatura",
		"function": "getTiempo"
	},

	{
		"intent": "info.lluvia",
		"function": "isGoingToRain"
	},

	{
		"intent": "info.hora",
		"function": "getHora"
	},

	{
		"intent": "info.fecha",
		"function": "getFecha"
	},

	{
		"intent": "info.monumento",
		"function": "getMonumento"
	},

	{
		"intent": "info.monumento.more",
		"function": "getMonumento"
	},

	{
		"intent": "info.geoPosicion",
		"function": "getCoordenadas"
	},

	{
		"intent": "info.empresa",
		"function": "getEmpresas"
	},

	{
		"intent": "info.empresa.more",
		"function": "getEmpresas"
	},

	{
		"intent": "info.empresa.municipio",
		"function": "getEmpresasMunicipio"
	},

	{
		"intent": "info.empresa.municipio.more",
		"function": "getEmpresasMunicipio"
	},

	{
		"intent": "info.ofertas",
		"function": "getOfertas"
	},

	{
		"intent": "info.ofertas.more",
		"function": "getOfertas"
	},

	{
		"intent": "info.ofertas.municipio",
		"function": "getOfertasMunicipio"
	},

	{
		"intent": "info.ofertas.municipio.more",
		"function": "getOfertasMunicipio"
	},

	{
		"intent": "info.eventos",
		"function": "getEventos"
	},

	{
		"intent": "info.eventos.more",
		"function": "getEventos"
	},

	{
		"intent": "info.eventos.municipio",
		"function": "getEventosMunicipio"
	},

	{
		"intent": "info.eventos.municipio.more",
		"function": "getEventosMunicipio"
	},

	{
		"intent": "corex.data.route",
		"function": "getRutas"
	},
	{
		"intent": "corex.data.route.more",
		"function": "getRutas"
	}
]